%YAML 1.1
%TAG !u! tag:unity3d.com,2011:
--- !u!21 &2100000
Material:
  serializedVersion: 6
  m_ObjectHideFlags: 0
  m_PrefabParentObject: {fileID: 0}
  m_PrefabInternal: {fileID: 0}
  m_Name: M_Blood_Mist_2x2
  m_Shader: {fileID: 4800000, guid: 9ebaef69dde59874e93c82575b85d60b, type: 3}
  m_ShaderKeywords: 
  m_LightmapFlags: 5
  m_CustomRenderQueue: 3000
  stringTagMap: {}
  m_SavedProperties:
    serializedVersion: 2
    m_TexEnvs:
    - first:
        name: _BumpMap
      second:
        m_Texture: {fileID: 0}
        m_Scale: {x: 1, y: 1}
        m_Offset: {x: 0, y: 0}
    - first:
        name: _Detail
      second:
        m_Texture: {fileID: 2800000, guid: f86240b36480d8843b9de02f5497a216, type: 3}
        m_Scale: {x: 1, y: 1}
        m_Offset: {x: 0, y: 0}
    - first:
        name: _DetailAlbedoMap
      second:
        m_Texture: {fileID: 0}
        m_Scale: {x: 1, y: 1}
        m_Offset: {x: 0, y: 0}
    - first:
        name: _DetailMask
      second:
        m_Texture: {fileID: 0}
        m_Scale: {x: 1, y: 1}
        m_Offset: {x: 0, y: 0}
    - first:
        name: _DetailNormalMap
      second:
        m_Texture: {fileID: 0}
        m_Scale: {x: 1, y: 1}
        m_Offset: {x: 0, y: 0}
    - first:
        name: _EmissionMap
      second:
        m_Texture: {fileID: 0}
        m_Scale: {x: 1, y: 1}
        m_Offset: {x: 0, y: 0}
    - first:
        name: _MainTex
      second:
        m_Texture: {fileID: 2800000, guid: b462a334a8d99e9469588f091d633695, type: 3}
        m_Scale: {x: 1, y: 1}
        m_Offset: {x: 0, y: 0}
    - first:
        name: _MetallicGlossMap
      second:
        m_Texture: {fileID: 0}
        m_Scale: {x: 1, y: 1}
        m_Offset: {x: 0, y: 0}
    - first:
        name: _NormalMap
      second:
        m_Texture: {fileID: 2800000, guid: 22acf9f0c85a2c5499b5dd108290d615, type: 3}
        m_Scale: {x: 1, y: 1}
        m_Offset: {x: 0, y: 0}
    - first:
        name: _OcclusionMap
      second:
        m_Texture: {fileID: 0}
        m_Scale: {x: 1, y: 1}
        m_Offset: {x: 0, y: 0}
    - first:
        name: _ParallaxMap
      second:
        m_Texture: {fileID: 0}
        m_Scale: {x: 1, y: 1}
        m_Offset: {x: 0, y: 0}
    - first:
        name: _Reflect
      second:
        m_Texture: {fileID: 2800000, guid: d7c0da11425f0c747b986aab30a0ad2a, type: 3}
        m_Scale: {x: 1, y: 1}
        m_Offset: {x: 0, y: 0}
    - first:
        name: _UVOff
      second:
        m_Texture: {fileID: 2800000, guid: 4fc46ff0ac5a52c46962fad1851234a2, type: 3}
        m_Scale: {x: 1, y: 1}
        m_Offset: {x: 0, y: 0}
    m_Floats:
    - first:
        name: _Ambience
      second: 0.2
    - first:
        name: _BumpScale
      second: 1
    - first:
        name: _Columns
      second: 2
    - first:
        name: _Cutoff
      second: 0.5
    - first:
        name: _DetailAlphaAffect
      second: 1
    - first:
        name: _DetailBrightAffect
      second: 0.18
    - first:
        name: _DetailNormalMapScale
      second: 1
    - first:
        name: _DetailPan
      second: 0.14
    - first:
        name: _DetailTile
      second: 14
    - first:
        name: _DstBlend
      second: 0
    - first:
        name: _EdgeMin
      second: 0.05
    - first:
        name: _EdgeSoft
      second: 0.08
    - first:
        name: _Glossiness
      second: 0.5
    - first:
        name: _InvFade
      second: 5
    - first:
        name: _InvertNdotL
      second: 1
    - first:
        name: _Metallic
      second: 0
    - first:
        name: _Mode
      second: 0
    - first:
        name: _NormalStr
      second: 1
    - first:
        name: _OcclusionStrength
      second: 1
    - first:
        name: _OffPow
      second: 2
    - first:
        name: _OffTile
      second: 0.2
    - first:
        name: _Overbright
      second: 0
    - first:
        name: _Parallax
      second: 0.02
    - first:
        name: _Rows
      second: 2
    - first:
        name: _Shininess
      second: 2
    - first:
        name: _SrcBlend
      second: 1
    - first:
        name: _UVSec
      second: 0
    - first:
        name: _ZWrite
      second: 1
    m_Colors:
    - first:
        name: _ChannelMask
      second: {r: 0, g: 0, b: 0, a: 1}
    - first:
        name: _Color
      second: {r: 1, g: 1, b: 1, a: 1}
    - first:
        name: _EmissionColor
      second: {r: 0, g: 0, b: 0, a: 1}
    - first:
        name: _HighlightColor
      second: {r: 0.125, g: 0.058823526, b: 0.058823526, a: 1}
    - first:
        name: _TintColor
      second: {r: 0.7647059, g: 0.039359853, b: 0.039359853, a: 1}
