%YAML 1.1
%TAG !u! tag:unity3d.com,2011:
--- !u!74 &7400000
AnimationClip:
  m_ObjectHideFlags: 0
  m_PrefabParentObject: {fileID: 0}
  m_PrefabInternal: {fileID: 0}
  m_Name: SkyColorDemo
  serializedVersion: 6
  m_Legacy: 0
  m_Compressed: 0
  m_UseHighQualityCurve: 1
  m_RotationCurves: []
  m_CompressedRotationCurves: []
  m_EulerCurves: []
  m_PositionCurves: []
  m_ScaleCurves: []
  m_FloatCurves:
  - curve:
      serializedVersion: 2
      m_Curve:
      - time: 0
        value: 0.15
        inSlope: -0.05910247
        outSlope: -0.05910247
        tangentMode: 10
      - time: 2
        value: 0.031795073
        inSlope: 0
        outSlope: 0
        tangentMode: 10
      - time: 4
        value: 0.15
        inSlope: 0.05910247
        outSlope: 0.05910247
        tangentMode: 10
      m_PreInfinity: 2
      m_PostInfinity: 2
      m_RotationOrder: 4
    attribute: skyColor.r
    path: 
    classID: 114
    script: {fileID: 11500000, guid: 352f624b91f18a14b8185d443a2a545c, type: 3}
  - curve:
      serializedVersion: 2
      m_Curve:
      - time: 0
        value: 0.3
        inSlope: -0.15
        outSlope: -0.15
        tangentMode: 10
      - time: 2
        value: 0
        inSlope: 0
        outSlope: 0
        tangentMode: 10
      - time: 4
        value: 0.3
        inSlope: 0.15
        outSlope: 0.15
        tangentMode: 10
      m_PreInfinity: 2
      m_PostInfinity: 2
      m_RotationOrder: 4
    attribute: skyColor.g
    path: 
    classID: 114
    script: {fileID: 11500000, guid: 352f624b91f18a14b8185d443a2a545c, type: 3}
  - curve:
      serializedVersion: 2
      m_Curve:
      - time: 0
        value: 0.5
        inSlope: -0.040441185
        outSlope: -0.040441185
        tangentMode: 10
      - time: 2
        value: 0.41911763
        inSlope: 0
        outSlope: 0
        tangentMode: 10
      - time: 4
        value: 0.5
        inSlope: 0.040441185
        outSlope: 0.040441185
        tangentMode: 10
      m_PreInfinity: 2
      m_PostInfinity: 2
      m_RotationOrder: 4
    attribute: skyColor.b
    path: 
    classID: 114
    script: {fileID: 11500000, guid: 352f624b91f18a14b8185d443a2a545c, type: 3}
  - curve:
      serializedVersion: 2
      m_Curve:
      - time: 0
        value: 1
        inSlope: 0
        outSlope: 0
        tangentMode: 10
      - time: 4
        value: 1
        inSlope: 0
        outSlope: 0
        tangentMode: 10
      m_PreInfinity: 2
      m_PostInfinity: 2
      m_RotationOrder: 4
    attribute: skyColor.a
    path: 
    classID: 114
    script: {fileID: 11500000, guid: 352f624b91f18a14b8185d443a2a545c, type: 3}
  - curve:
      serializedVersion: 2
      m_Curve:
      - time: 0
        value: 1.2
        inSlope: -0.20500001
        outSlope: -0.20500001
        tangentMode: 10
      - time: 2
        value: 0.79
        inSlope: 0
        outSlope: 0
        tangentMode: 10
      - time: 4
        value: 1.2
        inSlope: 0.20500001
        outSlope: 0.20500001
        tangentMode: 10
      m_PreInfinity: 2
      m_PostInfinity: 2
      m_RotationOrder: 4
    attribute: skyIntensity
    path: 
    classID: 114
    script: {fileID: 11500000, guid: 352f624b91f18a14b8185d443a2a545c, type: 3}
  - curve:
      serializedVersion: 2
      m_Curve:
      - time: 0
        value: 1
        inSlope: -0.23897058
        outSlope: -0.23897058
        tangentMode: 10
      - time: 2
        value: 0.52205884
        inSlope: 0
        outSlope: 0
        tangentMode: 10
      - time: 4
        value: 1
        inSlope: 0.23897058
        outSlope: 0.23897058
        tangentMode: 10
      m_PreInfinity: 2
      m_PostInfinity: 2
      m_RotationOrder: 4
    attribute: m_Color.r
    path: 
    classID: 108
    script: {fileID: 0}
  - curve:
      serializedVersion: 2
      m_Curve:
      - time: 0
        value: 0.9235293
        inSlope: -0.33823898
        outSlope: -0.33823898
        tangentMode: 10
      - time: 2
        value: 0.24705136
        inSlope: 0
        outSlope: 0
        tangentMode: 10
      - time: 4
        value: 0.9235293
        inSlope: 0.33823898
        outSlope: 0.33823898
        tangentMode: 10
      m_PreInfinity: 2
      m_PostInfinity: 2
      m_RotationOrder: 4
    attribute: m_Color.g
    path: 
    classID: 108
    script: {fileID: 0}
  - curve:
      serializedVersion: 2
      m_Curve:
      - time: 0
        value: 0.8088235
        inSlope: -0.33147705
        outSlope: -0.33147705
        tangentMode: 10
      - time: 2
        value: 0.1458694
        inSlope: 0
        outSlope: 0
        tangentMode: 10
      - time: 4
        value: 0.8088235
        inSlope: 0.33147705
        outSlope: 0.33147705
        tangentMode: 10
      m_PreInfinity: 2
      m_PostInfinity: 2
      m_RotationOrder: 4
    attribute: m_Color.b
    path: 
    classID: 108
    script: {fileID: 0}
  - curve:
      serializedVersion: 2
      m_Curve:
      - time: 0
        value: 1
        inSlope: 0
        outSlope: 0
        tangentMode: 10
      - time: 4
        value: 1
        inSlope: 0
        outSlope: 0
        tangentMode: 10
      m_PreInfinity: 2
      m_PostInfinity: 2
      m_RotationOrder: 4
    attribute: m_Color.a
    path: 
    classID: 108
    script: {fileID: 0}
  - curve:
      serializedVersion: 2
      m_Curve:
      - time: 0
        value: 0.6555385
        inSlope: 0
        outSlope: 0
        tangentMode: 0
      - time: 1
        value: 0.42697173
        inSlope: 0
        outSlope: 0
        tangentMode: 0
      - time: 2
        value: 0.2695847
        inSlope: -0.0029067546
        outSlope: -0.0029067546
        tangentMode: 10
      - time: 3
        value: 0.42115822
        inSlope: 0
        outSlope: 0
        tangentMode: 0
      - time: 4
        value: 0.6555385
        inSlope: 0
        outSlope: 0
        tangentMode: 0
      m_PreInfinity: 2
      m_PostInfinity: 2
      m_RotationOrder: 4
    attribute: fogColor.g
    path: 
    classID: 114
    script: {fileID: 11500000, guid: 352f624b91f18a14b8185d443a2a545c, type: 3}
  - curve:
      serializedVersion: 2
      m_Curve:
      - time: 0
        value: 0.57804126
        inSlope: 0
        outSlope: 0
        tangentMode: 0
      - time: 1
        value: 0.51684546
        inSlope: 0
        outSlope: 0
        tangentMode: 0
      - time: 2
        value: 0.38876924
        inSlope: 0.007301688
        outSlope: 0.007301688
        tangentMode: 10
      - time: 3
        value: 0.53144884
        inSlope: 0
        outSlope: 0
        tangentMode: 0
      - time: 4
        value: 0.57804126
        inSlope: 0
        outSlope: 0
        tangentMode: 0
      m_PreInfinity: 2
      m_PostInfinity: 2
      m_RotationOrder: 4
    attribute: fogColor.r
    path: 
    classID: 114
    script: {fileID: 11500000, guid: 352f624b91f18a14b8185d443a2a545c, type: 3}
  - curve:
      serializedVersion: 2
      m_Curve:
      - time: 0
        value: 0.74218327
        inSlope: 0
        outSlope: 0
        tangentMode: 0
      - time: 1
        value: 0.4234134
        inSlope: 0
        outSlope: 0
        tangentMode: 0
      - time: 2
        value: 0.41828778
        inSlope: -0.00084781647
        outSlope: -0.00084781647
        tangentMode: 10
      - time: 3
        value: 0.42171776
        inSlope: 0
        outSlope: 0
        tangentMode: 0
      - time: 4
        value: 0.74218327
        inSlope: 0
        outSlope: 0
        tangentMode: 0
      m_PreInfinity: 2
      m_PostInfinity: 2
      m_RotationOrder: 4
    attribute: fogColor.b
    path: 
    classID: 114
    script: {fileID: 11500000, guid: 352f624b91f18a14b8185d443a2a545c, type: 3}
  - curve:
      serializedVersion: 2
      m_Curve:
      - time: 0
        value: 1.1840401
        inSlope: 0
        outSlope: 0
        tangentMode: 0
      - time: 2
        value: 0.7794931
        inSlope: 0
        outSlope: 0
        tangentMode: 10
      - time: 4
        value: 1.1840401
        inSlope: 0
        outSlope: 0
        tangentMode: 0
      m_PreInfinity: 2
      m_PostInfinity: 2
      m_RotationOrder: 4
    attribute: fogColor.a
    path: 
    classID: 114
    script: {fileID: 11500000, guid: 352f624b91f18a14b8185d443a2a545c, type: 3}
  - curve:
      serializedVersion: 2
      m_Curve:
      - time: 0
        value: 0.7
        inSlope: 0.18511033
        outSlope: 0.18511033
        tangentMode: 10
      - time: 1
        value: 0.8851103
        inSlope: 0.03408307
        outSlope: 0.03408307
        tangentMode: 10
      - time: 2
        value: 0.7681661
        inSlope: 0.018548429
        outSlope: 0.018548429
        tangentMode: 10
      - time: 3
        value: 0.9222072
        inSlope: -0.03408307
        outSlope: -0.03408307
        tangentMode: 10
      - time: 4
        value: 0.7
        inSlope: -0.22220719
        outSlope: -0.22220719
        tangentMode: 10
      m_PreInfinity: 2
      m_PostInfinity: 2
      m_RotationOrder: 4
    attribute: horizonColor.r
    path: 
    classID: 114
    script: {fileID: 11500000, guid: 352f624b91f18a14b8185d443a2a545c, type: 3}
  - curve:
      serializedVersion: 2
      m_Curve:
      - time: 0
        value: 0.85
        inSlope: -0.1564908
        outSlope: -0.1564908
        tangentMode: 10
      - time: 1
        value: 0.6935092
        inSlope: -0.1909494
        outSlope: -0.1909494
        tangentMode: 10
      - time: 2
        value: 0.46810123
        inSlope: -0.007383913
        outSlope: -0.007383913
        tangentMode: 10
      - time: 3
        value: 0.6787414
        inSlope: 0.1909494
        outSlope: 0.1909494
        tangentMode: 10
      - time: 4
        value: 0.85
        inSlope: 0.17125863
        outSlope: 0.17125863
        tangentMode: 10
      m_PreInfinity: 2
      m_PostInfinity: 2
      m_RotationOrder: 4
    attribute: horizonColor.g
    path: 
    classID: 114
    script: {fileID: 11500000, guid: 352f624b91f18a14b8185d443a2a545c, type: 3}
  - curve:
      serializedVersion: 2
      m_Curve:
      - time: 0
        value: 1
        inSlope: -0.38868672
        outSlope: -0.38868672
        tangentMode: 10
      - time: 1
        value: 0.6113133
        inSlope: -0.09191176
        outSlope: -0.09191176
        tangentMode: 10
      - time: 2
        value: 0.8161765
        inSlope: -0.0021536648
        outSlope: -0.0021536648
        tangentMode: 10
      - time: 3
        value: 0.60700595
        inSlope: 0.09191176
        outSlope: 0.09191176
        tangentMode: 10
      - time: 4
        value: 1
        inSlope: 0.39299405
        outSlope: 0.39299405
        tangentMode: 10
      m_PreInfinity: 2
      m_PostInfinity: 2
      m_RotationOrder: 4
    attribute: horizonColor.b
    path: 
    classID: 114
    script: {fileID: 11500000, guid: 352f624b91f18a14b8185d443a2a545c, type: 3}
  - curve:
      serializedVersion: 2
      m_Curve:
      - time: 0
        value: 1
        inSlope: 0
        outSlope: 0
        tangentMode: 10
      - time: 4
        value: 1
        inSlope: 0
        outSlope: 0
        tangentMode: 10
      m_PreInfinity: 2
      m_PostInfinity: 2
      m_RotationOrder: 4
    attribute: horizonColor.a
    path: 
    classID: 114
    script: {fileID: 11500000, guid: 352f624b91f18a14b8185d443a2a545c, type: 3}
  m_PPtrCurves: []
  m_SampleRate: 60
  m_WrapMode: 0
  m_Bounds:
    m_Center: {x: 0, y: 0, z: 0}
    m_Extent: {x: 0, y: 0, z: 0}
  m_ClipBindingConstant:
    genericBindings:
    - path: 0
      attribute: 3261253983
      script: {fileID: 11500000, guid: 352f624b91f18a14b8185d443a2a545c, type: 3}
      classID: 114
      customType: 0
      isPPtrCurve: 0
    - path: 0
      attribute: 2948541876
      script: {fileID: 11500000, guid: 352f624b91f18a14b8185d443a2a545c, type: 3}
      classID: 114
      customType: 0
      isPPtrCurve: 0
    - path: 0
      attribute: 3755333947
      script: {fileID: 11500000, guid: 352f624b91f18a14b8185d443a2a545c, type: 3}
      classID: 114
      customType: 0
      isPPtrCurve: 0
    - path: 0
      attribute: 3705799898
      script: {fileID: 11500000, guid: 352f624b91f18a14b8185d443a2a545c, type: 3}
      classID: 114
      customType: 0
      isPPtrCurve: 0
    - path: 0
      attribute: 2526845255
      script: {fileID: 0}
      classID: 108
      customType: 25
      isPPtrCurve: 0
    - path: 0
      attribute: 4215373228
      script: {fileID: 0}
      classID: 108
      customType: 25
      isPPtrCurve: 0
    - path: 0
      attribute: 2334886179
      script: {fileID: 0}
      classID: 108
      customType: 25
      isPPtrCurve: 0
    - path: 0
      attribute: 1524962573
      script: {fileID: 11500000, guid: 352f624b91f18a14b8185d443a2a545c, type: 3}
      classID: 114
      customType: 0
      isPPtrCurve: 0
    - path: 0
      attribute: 926478822
      script: {fileID: 11500000, guid: 352f624b91f18a14b8185d443a2a545c, type: 3}
      classID: 114
      customType: 0
      isPPtrCurve: 0
    - path: 0
      attribute: 714072450
      script: {fileID: 11500000, guid: 352f624b91f18a14b8185d443a2a545c, type: 3}
      classID: 114
      customType: 0
      isPPtrCurve: 0
    - path: 0
      attribute: 3011948600
      script: {fileID: 11500000, guid: 352f624b91f18a14b8185d443a2a545c, type: 3}
      classID: 114
      customType: 0
      isPPtrCurve: 0
    - path: 0
      attribute: 1379644344
      script: {fileID: 11500000, guid: 352f624b91f18a14b8185d443a2a545c, type: 3}
      classID: 114
      customType: 0
      isPPtrCurve: 0
    - path: 0
      attribute: 1072060243
      script: {fileID: 11500000, guid: 352f624b91f18a14b8185d443a2a545c, type: 3}
      classID: 114
      customType: 0
      isPPtrCurve: 0
    - path: 0
      attribute: 1334617052
      script: {fileID: 11500000, guid: 352f624b91f18a14b8185d443a2a545c, type: 3}
      classID: 114
      customType: 0
      isPPtrCurve: 0
    - path: 0
      attribute: 1188857985
      script: {fileID: 11500000, guid: 352f624b91f18a14b8185d443a2a545c, type: 3}
      classID: 114
      customType: 0
      isPPtrCurve: 0
    - path: 0
      attribute: 304273561
      script: {fileID: 0}
      classID: 108
      customType: 25
      isPPtrCurve: 0
    - path: 0
      attribute: 3599102566
      script: {fileID: 11500000, guid: 352f624b91f18a14b8185d443a2a545c, type: 3}
      classID: 114
      customType: 0
      isPPtrCurve: 0
    pptrCurveMapping: []
  m_AnimationClipSettings:
    serializedVersion: 2
    m_AdditiveReferencePoseClip: {fileID: 0}
    m_AdditiveReferencePoseTime: 0
    m_StartTime: 0
    m_StopTime: 4
    m_OrientationOffsetY: 0
    m_Level: 0
    m_CycleOffset: 0
    m_HasAdditiveReferencePose: 0
    m_LoopTime: 1
    m_LoopBlend: 0
    m_LoopBlendOrientation: 0
    m_LoopBlendPositionY: 0
    m_LoopBlendPositionXZ: 0
    m_KeepOriginalOrientation: 0
    m_KeepOriginalPositionY: 1
    m_KeepOriginalPositionXZ: 0
    m_HeightFromFeet: 0
    m_Mirror: 0
  m_EditorCurves:
  - curve:
      serializedVersion: 2
      m_Curve:
      - time: 0
        value: 0.15
        inSlope: -0.05910247
        outSlope: -0.05910247
        tangentMode: 10
      - time: 2
        value: 0.031795073
        inSlope: 0
        outSlope: 0
        tangentMode: 10
      - time: 4
        value: 0.15
        inSlope: 0.05910247
        outSlope: 0.05910247
        tangentMode: 10
      m_PreInfinity: 2
      m_PostInfinity: 2
      m_RotationOrder: 4
    attribute: skyColor.r
    path: 
    classID: 114
    script: {fileID: 11500000, guid: 352f624b91f18a14b8185d443a2a545c, type: 3}
  - curve:
      serializedVersion: 2
      m_Curve:
      - time: 0
        value: 0.3
        inSlope: -0.15
        outSlope: -0.15
        tangentMode: 10
      - time: 2
        value: 0
        inSlope: 0
        outSlope: 0
        tangentMode: 10
      - time: 4
        value: 0.3
        inSlope: 0.15
        outSlope: 0.15
        tangentMode: 10
      m_PreInfinity: 2
      m_PostInfinity: 2
      m_RotationOrder: 4
    attribute: skyColor.g
    path: 
    classID: 114
    script: {fileID: 11500000, guid: 352f624b91f18a14b8185d443a2a545c, type: 3}
  - curve:
      serializedVersion: 2
      m_Curve:
      - time: 0
        value: 0.5
        inSlope: -0.040441185
        outSlope: -0.040441185
        tangentMode: 10
      - time: 2
        value: 0.41911763
        inSlope: 0
        outSlope: 0
        tangentMode: 10
      - time: 4
        value: 0.5
        inSlope: 0.040441185
        outSlope: 0.040441185
        tangentMode: 10
      m_PreInfinity: 2
      m_PostInfinity: 2
      m_RotationOrder: 4
    attribute: skyColor.b
    path: 
    classID: 114
    script: {fileID: 11500000, guid: 352f624b91f18a14b8185d443a2a545c, type: 3}
  - curve:
      serializedVersion: 2
      m_Curve:
      - time: 0
        value: 1
        inSlope: 0
        outSlope: 0
        tangentMode: 10
      - time: 4
        value: 1
        inSlope: 0
        outSlope: 0
        tangentMode: 10
      m_PreInfinity: 2
      m_PostInfinity: 2
      m_RotationOrder: 4
    attribute: skyColor.a
    path: 
    classID: 114
    script: {fileID: 11500000, guid: 352f624b91f18a14b8185d443a2a545c, type: 3}
  - curve:
      serializedVersion: 2
      m_Curve:
      - time: 0
        value: 1.2
        inSlope: -0.20500001
        outSlope: -0.20500001
        tangentMode: 10
      - time: 2
        value: 0.79
        inSlope: 0
        outSlope: 0
        tangentMode: 10
      - time: 4
        value: 1.2
        inSlope: 0.20500001
        outSlope: 0.20500001
        tangentMode: 10
      m_PreInfinity: 2
      m_PostInfinity: 2
      m_RotationOrder: 4
    attribute: skyIntensity
    path: 
    classID: 114
    script: {fileID: 11500000, guid: 352f624b91f18a14b8185d443a2a545c, type: 3}
  - curve:
      serializedVersion: 2
      m_Curve:
      - time: 0
        value: 1
        inSlope: -0.23897058
        outSlope: -0.23897058
        tangentMode: 10
      - time: 2
        value: 0.52205884
        inSlope: 0
        outSlope: 0
        tangentMode: 10
      - time: 4
        value: 1
        inSlope: 0.23897058
        outSlope: 0.23897058
        tangentMode: 10
      m_PreInfinity: 2
      m_PostInfinity: 2
      m_RotationOrder: 4
    attribute: m_Color.r
    path: 
    classID: 108
    script: {fileID: 0}
  - curve:
      serializedVersion: 2
      m_Curve:
      - time: 0
        value: 0.9235293
        inSlope: -0.33823898
        outSlope: -0.33823898
        tangentMode: 10
      - time: 2
        value: 0.24705136
        inSlope: 0
        outSlope: 0
        tangentMode: 10
      - time: 4
        value: 0.9235293
        inSlope: 0.33823898
        outSlope: 0.33823898
        tangentMode: 10
      m_PreInfinity: 2
      m_PostInfinity: 2
      m_RotationOrder: 4
    attribute: m_Color.g
    path: 
    classID: 108
    script: {fileID: 0}
  - curve:
      serializedVersion: 2
      m_Curve:
      - time: 0
        value: 0.8088235
        inSlope: -0.33147705
        outSlope: -0.33147705
        tangentMode: 10
      - time: 2
        value: 0.1458694
        inSlope: 0
        outSlope: 0
        tangentMode: 10
      - time: 4
        value: 0.8088235
        inSlope: 0.33147705
        outSlope: 0.33147705
        tangentMode: 10
      m_PreInfinity: 2
      m_PostInfinity: 2
      m_RotationOrder: 4
    attribute: m_Color.b
    path: 
    classID: 108
    script: {fileID: 0}
  - curve:
      serializedVersion: 2
      m_Curve:
      - time: 0
        value: 1
        inSlope: 0
        outSlope: 0
        tangentMode: 10
      - time: 4
        value: 1
        inSlope: 0
        outSlope: 0
        tangentMode: 10
      m_PreInfinity: 2
      m_PostInfinity: 2
      m_RotationOrder: 4
    attribute: m_Color.a
    path: 
    classID: 108
    script: {fileID: 0}
  - curve:
      serializedVersion: 2
      m_Curve:
      - time: 0
        value: 0.6555385
        inSlope: 0
        outSlope: 0
        tangentMode: 0
      - time: 1
        value: 0.42697173
        inSlope: 0
        outSlope: 0
        tangentMode: 0
      - time: 2
        value: 0.2695847
        inSlope: -0.0029067546
        outSlope: -0.0029067546
        tangentMode: 10
      - time: 3
        value: 0.42115822
        inSlope: 0
        outSlope: 0
        tangentMode: 0
      - time: 4
        value: 0.6555385
        inSlope: 0
        outSlope: 0
        tangentMode: 0
      m_PreInfinity: 2
      m_PostInfinity: 2
      m_RotationOrder: 4
    attribute: fogColor.g
    path: 
    classID: 114
    script: {fileID: 11500000, guid: 352f624b91f18a14b8185d443a2a545c, type: 3}
  - curve:
      serializedVersion: 2
      m_Curve:
      - time: 0
        value: 0.57804126
        inSlope: 0
        outSlope: 0
        tangentMode: 0
      - time: 1
        value: 0.51684546
        inSlope: 0
        outSlope: 0
        tangentMode: 0
      - time: 2
        value: 0.38876924
        inSlope: 0.007301688
        outSlope: 0.007301688
        tangentMode: 10
      - time: 3
        value: 0.53144884
        inSlope: 0
        outSlope: 0
        tangentMode: 0
      - time: 4
        value: 0.57804126
        inSlope: 0
        outSlope: 0
        tangentMode: 0
      m_PreInfinity: 2
      m_PostInfinity: 2
      m_RotationOrder: 4
    attribute: fogColor.r
    path: 
    classID: 114
    script: {fileID: 11500000, guid: 352f624b91f18a14b8185d443a2a545c, type: 3}
  - curve:
      serializedVersion: 2
      m_Curve:
      - time: 0
        value: 0.74218327
        inSlope: 0
        outSlope: 0
        tangentMode: 0
      - time: 1
        value: 0.4234134
        inSlope: 0
        outSlope: 0
        tangentMode: 0
      - time: 2
        value: 0.41828778
        inSlope: -0.00084781647
        outSlope: -0.00084781647
        tangentMode: 10
      - time: 3
        value: 0.42171776
        inSlope: 0
        outSlope: 0
        tangentMode: 0
      - time: 4
        value: 0.74218327
        inSlope: 0
        outSlope: 0
        tangentMode: 0
      m_PreInfinity: 2
      m_PostInfinity: 2
      m_RotationOrder: 4
    attribute: fogColor.b
    path: 
    classID: 114
    script: {fileID: 11500000, guid: 352f624b91f18a14b8185d443a2a545c, type: 3}
  - curve:
      serializedVersion: 2
      m_Curve:
      - time: 0
        value: 1.1840401
        inSlope: 0
        outSlope: 0
        tangentMode: 0
      - time: 2
        value: 0.7794931
        inSlope: 0
        outSlope: 0
        tangentMode: 10
      - time: 4
        value: 1.1840401
        inSlope: 0
        outSlope: 0
        tangentMode: 0
      m_PreInfinity: 2
      m_PostInfinity: 2
      m_RotationOrder: 4
    attribute: fogColor.a
    path: 
    classID: 114
    script: {fileID: 11500000, guid: 352f624b91f18a14b8185d443a2a545c, type: 3}
  - curve:
      serializedVersion: 2
      m_Curve:
      - time: 0
        value: 0.7
        inSlope: 0.18511033
        outSlope: 0.18511033
        tangentMode: 10
      - time: 1
        value: 0.8851103
        inSlope: 0.03408307
        outSlope: 0.03408307
        tangentMode: 10
      - time: 2
        value: 0.7681661
        inSlope: 0.018548429
        outSlope: 0.018548429
        tangentMode: 10
      - time: 3
        value: 0.9222072
        inSlope: -0.03408307
        outSlope: -0.03408307
        tangentMode: 10
      - time: 4
        value: 0.7
        inSlope: -0.22220719
        outSlope: -0.22220719
        tangentMode: 10
      m_PreInfinity: 2
      m_PostInfinity: 2
      m_RotationOrder: 4
    attribute: horizonColor.r
    path: 
    classID: 114
    script: {fileID: 11500000, guid: 352f624b91f18a14b8185d443a2a545c, type: 3}
  - curve:
      serializedVersion: 2
      m_Curve:
      - time: 0
        value: 0.85
        inSlope: -0.1564908
        outSlope: -0.1564908
        tangentMode: 10
      - time: 1
        value: 0.6935092
        inSlope: -0.1909494
        outSlope: -0.1909494
        tangentMode: 10
      - time: 2
        value: 0.46810123
        inSlope: -0.007383913
        outSlope: -0.007383913
        tangentMode: 10
      - time: 3
        value: 0.6787414
        inSlope: 0.1909494
        outSlope: 0.1909494
        tangentMode: 10
      - time: 4
        value: 0.85
        inSlope: 0.17125863
        outSlope: 0.17125863
        tangentMode: 10
      m_PreInfinity: 2
      m_PostInfinity: 2
      m_RotationOrder: 4
    attribute: horizonColor.g
    path: 
    classID: 114
    script: {fileID: 11500000, guid: 352f624b91f18a14b8185d443a2a545c, type: 3}
  - curve:
      serializedVersion: 2
      m_Curve:
      - time: 0
        value: 1
        inSlope: -0.38868672
        outSlope: -0.38868672
        tangentMode: 10
      - time: 1
        value: 0.6113133
        inSlope: -0.09191176
        outSlope: -0.09191176
        tangentMode: 10
      - time: 2
        value: 0.8161765
        inSlope: -0.0021536648
        outSlope: -0.0021536648
        tangentMode: 10
      - time: 3
        value: 0.60700595
        inSlope: 0.09191176
        outSlope: 0.09191176
        tangentMode: 10
      - time: 4
        value: 1
        inSlope: 0.39299405
        outSlope: 0.39299405
        tangentMode: 10
      m_PreInfinity: 2
      m_PostInfinity: 2
      m_RotationOrder: 4
    attribute: horizonColor.b
    path: 
    classID: 114
    script: {fileID: 11500000, guid: 352f624b91f18a14b8185d443a2a545c, type: 3}
  - curve:
      serializedVersion: 2
      m_Curve:
      - time: 0
        value: 1
        inSlope: 0
        outSlope: 0
        tangentMode: 10
      - time: 4
        value: 1
        inSlope: 0
        outSlope: 0
        tangentMode: 10
      m_PreInfinity: 2
      m_PostInfinity: 2
      m_RotationOrder: 4
    attribute: horizonColor.a
    path: 
    classID: 114
    script: {fileID: 11500000, guid: 352f624b91f18a14b8185d443a2a545c, type: 3}
  m_EulerEditorCurves: []
  m_HasGenericRootTransform: 0
  m_HasMotionFloatCurves: 0
  m_GenerateMotionCurves: 0
  m_Events:
  - time: 0
    functionName: StopPlaying
    data: 
    objectReferenceParameter: {fileID: 0}
    floatParameter: 0
    intParameter: 0
    messageOptions: 0
  - time: 2
    functionName: StopPlaying
    data: 
    objectReferenceParameter: {fileID: 0}
    floatParameter: 0
    intParameter: 0
    messageOptions: 0
  - time: 4
    functionName: StopPlaying
    data: 
    objectReferenceParameter: {fileID: 0}
    floatParameter: 0
    intParameter: 0
    messageOptions: 0
